5.560379745483398750e+01
2.143934337615966967e+01
1.724946025848388587e+01
1.616368663787841697e+01
1.511355018615722656e+01
1.443099657058715835e+01
1.334056343078613338e+01
1.285234767913818388e+01
1.223351146697998004e+01
1.166415832519531293e+01
1.130762029647827127e+01
1.108509059906005945e+01
1.049769168853759815e+01
1.046621446609497141e+01
1.024453687667846680e+01
9.841760444641113992e+00
9.845495738983153444e+00
9.793336334228515128e+00
9.898845634460450071e+00
9.224106216430664418e+00
9.485395288467406871e+00
9.515055522918700603e+00
9.079463768005371804e+00
8.927030801773071289e+00
9.173480815887451456e+00
8.855575218200684162e+00
8.781134881973265749e+00
8.831367797851562784e+00
8.755254487991333434e+00
9.202057132720947052e+00
9.225616302490234233e+00
8.822073783874511577e+00
8.504187631607056375e+00
8.640057678222655468e+00
8.420039224624634500e+00
8.531715068817138814e+00
8.287350664138793732e+00
8.500549316406250000e+00
8.379005975723266886e+00
8.496552343368529492e+00
8.325631046295166371e+00
8.189477481842040163e+00
8.022744417190551758e+00
8.088857526779174023e+00
9.209234857559204457e+00
8.127228298187255007e+00
8.087509469985961985e+00
8.003627710342406942e+00
8.181830120086669211e+00
7.926518125534057546e+00
