5.709641754150390369e+01
2.095160556793213047e+01
2.742319599151611342e+01
1.820442623138427862e+01
1.741183712005615192e+01
1.468335680007934485e+01
1.363009975433349652e+01
1.336676624298095639e+01
1.228969760894775476e+01
1.467958370208740249e+01
1.135640363693237376e+01
1.115863780975341868e+01
1.126733600616455000e+01
1.039913627624511783e+01
1.011368700027465906e+01
9.804796848297119283e+00
1.039442445755004840e+01
9.581393508911132173e+00
9.512212524414062287e+00
9.506785068511963033e+00
9.557337894439697834e+00
9.031946487426758097e+00
9.080476751327514862e+00
8.921601600646972940e+00
8.776982765197754333e+00
9.272549324035644247e+00
9.088927450180053214e+00
8.618426084518432617e+00
9.290681724548340625e+00
8.994313249588012482e+00
8.982004556655883931e+00
8.456055746078490643e+00
8.567410545349121165e+00
9.446431007385253764e+00
8.439455003738403960e+00
8.565464563369751261e+00
8.604658298492431356e+00
8.325996541976929066e+00
8.391266002655029865e+00
8.741480913162231303e+00
8.374401645660400462e+00
8.342195625305175000e+00
8.174716148376464986e+00
8.213162612915038352e+00
8.160449304580687624e+00
7.993140869140624716e+00
8.066174812316894815e+00
8.225104589462279847e+00
8.120155038833617667e+00
7.985403308868407990e+00
