4.439662452697753992e+01
2.180936790466308750e+01
1.880504295349120980e+01
2.558637435913085767e+01
1.451508625030517585e+01
1.436528064727783160e+01
1.341421121597289989e+01
1.237884653091430742e+01
1.236412528991699133e+01
1.125836418151855511e+01
1.232107229232788015e+01
1.082408767700195362e+01
9.943752174377442188e+00
9.894595890045165376e+00
1.019324987411498995e+01
9.874265956878662820e+00
9.195781497955321626e+00
9.037288923263549378e+00
9.883580818176270100e+00
8.958130435943603587e+00
8.701320228576660654e+00
9.284258508682251332e+00
8.724602851867675923e+00
8.587622575759887411e+00
8.637686395645141957e+00
8.536671180725097230e+00
8.697415456771850018e+00
9.540458908081054901e+00
9.049358005523680859e+00
8.476193504333496165e+00
8.115483226776122549e+00
8.206345510482787375e+00
8.384824037551879883e+00
8.334490156173705699e+00
7.971570978164672638e+00
8.365283355712890057e+00
8.101695070266723420e+00
7.984572496414184428e+00
7.946404209136963104e+00
7.926381750106811452e+00
7.919983282089233079e+00
7.859591550827026651e+00
7.897590646743774201e+00
7.970984439849853942e+00
7.802614116668701527e+00
7.889907217025756481e+00
7.802068433761596644e+00
7.759806900024414311e+00
7.910917901992798207e+00
7.827129859924315980e+00
