D:/data-shared/varroc/VND-images/zpracovane\img_r_111.png 449.7426452636719,234.27325439453125,461.271728515625,241.5093536376953,0.99977064,0 333.0335388183594,230.68321228027344,383.04254150390625,259.749755859375,0.9996386,0 417.2120666503906,246.0728302001953,448.1309509277344,261.8437805175781,0.9745426,0 343.51983642578125,255.94032287597656,372.49749755859375,259.42987060546875,0.2724498,0 360.40155029296875,257.114501953125,370.3558044433594,259.57208251953125,0.14494689,0 
D:/data-shared/varroc/VND-images/zpracovane\img_r_112.png 494.13104248046875,212.45208740234375,526.8841552734375,234.25326538085938,0.9988907,0 
D:/data-shared/varroc/VND-images/zpracovane\img_r_113.png 461.79010009765625,214.07997131347656,493.9979553222656,236.47581481933594,0.9974763,0 493.122802734375,210.66441345214844,503.5646057128906,216.1781005859375,0.8713273,0 567.454833984375,208.57789611816406,573.52392578125,212.6337890625,0.12250794,0 569.75244140625,207.85049438476562,577.204345703125,212.1868438720703,0.10410955,0 
D:/data-shared/varroc/VND-images/zpracovane\img_r_114.png 449.8167419433594,234.02345275878906,461.413818359375,241.32273864746094,0.99972737,0 330.6430358886719,229.3867645263672,380.3700866699219,261.2830505371094,0.99954444,0 417.68975830078125,246.62669372558594,449.02435302734375,262.43988037109375,0.99350655,0 336.3818359375,256.5596008300781,371.72552490234375,260.1858215332031,0.11115093,0 356.8515625,257.5672302246094,366.9364318847656,260.0053405761719,0.10063163,0 
D:/data-shared/varroc/VND-images/zpracovane\img_r_115.png 449.86529541015625,233.7159423828125,460.9398498535156,240.98741149902344,0.99984586,0 326.3554992675781,229.09420776367188,379.8958435058594,262.36468505859375,0.9997427,0 417.9571533203125,247.0567169189453,449.1478576660156,263.0809631347656,0.98946804,0 336.34747314453125,257.2766418457031,371.3411560058594,261.17034912109375,0.10337626,0 
D:/data-shared/varroc/VND-images/zpracovane\img_r_116.png 449.6694641113281,233.5513458251953,460.91900634765625,240.93014526367188,0.99988234,0 321.0562744140625,228.30471801757812,379.0341491699219,262.3659362792969,0.99969804,0 418.63812255859375,247.38197326660156,450.1165466308594,263.5921630859375,0.9891207,0 
D:/data-shared/varroc/VND-images/zpracovane\img_r_117.png 449.55621337890625,233.36605834960938,460.6192932128906,240.82814025878906,0.99984944,0 318.48553466796875,227.543701171875,374.9008483886719,262.8728942871094,0.9996509,0 418.69793701171875,247.4315643310547,449.6973876953125,263.9420166015625,0.98925865,0 583.2506103515625,227.2078857421875,588.6859130859375,231.05645751953125,0.5688327,0 585.200439453125,227.23094177246094,592.5582275390625,230.75196838378906,0.16690274,0 
D:/data-shared/varroc/VND-images/zpracovane\img_r_118.png 449.19561767578125,233.51051330566406,459.7478332519531,240.73605346679688,0.99980795,0 316.3069152832031,228.15985107421875,373.55975341796875,262.5734558105469,0.9997627,0 419.149169921875,247.27459716796875,450.322021484375,264.3514709472656,0.984881,0 582.4525146484375,226.78515625,589.18701171875,231.13973999023438,0.8623018,0 
D:/data-shared/varroc/VND-images/zpracovane\img_r_119.png 310.76446533203125,226.6465301513672,372.2354431152344,264.4602966308594,0.9998328,0 448.8230285644531,233.1493682861328,460.20074462890625,240.63677978515625,0.99971116,0 417.7991943359375,248.57553100585938,449.4860534667969,264.9033508300781,0.99017733,0 583.6416015625,225.3726348876953,589.3690795898438,229.9546356201172,0.5642453,0 511.9634704589844,228.12222290039062,515.2194213867188,230.91650390625,0.14906245,0 
D:/data-shared/varroc/VND-images/zpracovane\img_r_199.png 421.31976318359375,197.1092987060547,454.1640319824219,218.09286499023438,0.99955285,0 372.0534362792969,198.059814453125,407.2420959472656,223.05758666992188,0.99876106,0 403.5061950683594,171.09507751464844,421.6311340332031,185.47317504882812,0.9986978,0 624.3609619140625,140.0433349609375,635.0091552734375,146.245361328125,0.9972148,0 428.58697509765625,151.04794311523438,442.6622314453125,160.04367065429688,0.9967778,0 583.8546752929688,145.1336212158203,594.1067504882812,151.594970703125,0.9843062,0 607.1809692382812,138.02389526367188,612.9767456054688,141.21774291992188,0.350063,0 
D:/data-shared/varroc/VND-images/zpracovane\img_r_2.png 481.0255432128906,213.8219451904297,513.370361328125,234.7840576171875,0.997809,0 526.927978515625,212.14903259277344,531.5228271484375,215.06024169921875,0.27140853,0 523.9613647460938,212.30413818359375,529.519775390625,215.1388702392578,0.13903438,0 
D:/data-shared/varroc/VND-images/zpracovane\img_r_20.png 361.4285583496094,197.76229858398438,392.9472351074219,218.85643005371094,0.9989464,0 440.2528381347656,214.51885986328125,445.49755859375,218.46517944335938,0.24254839,0 
D:/data-shared/varroc/VND-images/zpracovane\img_r_200.png 428.06219482421875,149.56068420410156,442.4726867675781,159.41128540039062,0.9996971,0 419.94085693359375,194.76304626464844,455.4289855957031,216.8584442138672,0.9996767,0 402.2921142578125,169.84829711914062,420.998046875,183.72764587402344,0.9987614,0 370.8559875488281,196.61343383789062,405.7531433105469,222.95411682128906,0.9969512,0 623.7207641601562,138.58474731445312,633.9160766601562,144.9093017578125,0.9724788,0 582.58056640625,143.6527862548828,592.2695922851562,150.07760620117188,0.96852696,0 607.626708984375,137.1800537109375,613.18017578125,140.09825134277344,0.1780282,0 
D:/data-shared/varroc/VND-images/zpracovane\img_r_201.png 446.93780517578125,214.43984985351562,478.4593200683594,236.4366455078125,0.99822015,0 553.4322509765625,207.6562042236328,560.9732666015625,212.85580444335938,0.36300734,0 471.1660461425781,210.92169189453125,476.910888671875,215.26597595214844,0.25833943,0 
D:/data-shared/varroc/VND-images/zpracovane\img_r_202.png 426.64093017578125,148.7857208251953,440.6375427246094,158.18161010742188,0.9999044,0 367.2769775390625,196.12867736816406,404.9445495605469,222.45596313476562,0.9993432,0 419.8319396972656,192.97274780273438,453.3617858886719,216.0369110107422,0.9992708,0 401.9381103515625,169.16810607910156,420.6800842285156,183.10986328125,0.9978239,0 582.113037109375,142.91598510742188,592.17626953125,148.91070556640625,0.9957685,0 622.1397094726562,137.62632751464844,632.3887329101562,144.21885681152344,0.95411277,0 607.5947875976562,135.7103729248047,613.3818359375,139.7145538330078,0.5515896,0 
D:/data-shared/varroc/VND-images/zpracovane\img_r_203.png 418.5286560058594,191.92330932617188,454.8944396972656,214.55853271484375,0.9995646,0 399.97772216796875,168.0235137939453,419.2774658203125,182.67713928222656,0.9990729,0 366.4002990722656,195.26426696777344,402.5880432128906,222.52731323242188,0.99877626,0 424.8243408203125,147.52371215820312,439.9962463378906,157.41177368164062,0.99785924,0 581.69287109375,142.2193603515625,591.266845703125,148.1082305908203,0.9961226,0 609.5050048828125,134.65574645996094,616.21923828125,139.9269561767578,0.7008209,0 621.6495361328125,136.74302673339844,631.0805053710938,142.4343719482422,0.64487225,0 507.90118408203125,144.27532958984375,511.8228759765625,148.89163208007812,0.17500411,0 
D:/data-shared/varroc/VND-images/zpracovane\img_r_204.png 420.0841369628906,190.7184600830078,452.84771728515625,212.74049377441406,0.9996128,0 400.0783386230469,167.55186462402344,419.3973083496094,182.25233459472656,0.99960697,0 363.3031005859375,194.6402587890625,400.7309875488281,222.69390869140625,0.9993004,0 423.8009033203125,146.71241760253906,438.5675964355469,156.3970184326172,0.9991833,0 581.2760009765625,140.94790649414062,590.5178833007812,146.76504516601562,0.9838053,0 620.8192749023438,135.63267517089844,631.4966430664062,141.966552734375,0.9811632,0 609.6572875976562,132.59027099609375,617.1498413085938,137.66795349121094,0.5330982,0 506.93060302734375,142.5989990234375,512.3271484375,148.288818359375,0.49036264,0 504.3530578613281,142.75428771972656,510.0339050292969,148.4626922607422,0.15985574,0 509.79937744140625,142.7804718017578,516.2958984375,147.86892700195312,0.11779114,0 
D:/data-shared/varroc/VND-images/zpracovane\img_r_205.png 422.42193603515625,146.1092071533203,437.0693359375,156.01577758789062,0.9997258,0 399.3598937988281,166.8860626220703,418.85614013671875,181.87449645996094,0.999101,0 360.72235107421875,192.267578125,399.8786315917969,222.7821044921875,0.99879766,0 417.24176025390625,189.590087890625,453.359619140625,211.86279296875,0.998767,0 580.7257080078125,140.28262329101562,590.0718994140625,145.92881774902344,0.99224824,0 619.5455322265625,135.27061462402344,631.0077514648438,141.4785919189453,0.85812837,0 609.757080078125,131.8424072265625,616.6513671875,137.13479614257812,0.3494786,0 505.9582214355469,142.15557861328125,512.3419189453125,147.28335571289062,0.29530713,0 604.9906005859375,133.19000244140625,632.8521118164062,141.81642150878906,0.21480508,0 
D:/data-shared/varroc/VND-images/zpracovane\img_r_206.png 421.317626953125,145.44387817382812,436.0590515136719,155.3175811767578,0.99947494,0 358.07666015625,192.37118530273438,397.88006591796875,222.81947326660156,0.99946284,0 419.7961730957031,188.4839630126953,453.0762634277344,210.21783447265625,0.9993639,0 398.70361328125,166.3848114013672,418.2355041503906,181.17605590820312,0.9984131,0 579.9033203125,139.68003845214844,590.0770263671875,145.37998962402344,0.99577665,0 506.2406921386719,139.7255096435547,512.70458984375,145.75375366210938,0.6467853,0 619.0236206054688,134.62757873535156,630.55029296875,140.80551147460938,0.42680725,0 609.5825805664062,131.40159606933594,617.7960815429688,136.9986572265625,0.3311943,0 605.4454345703125,132.63571166992188,632.6929321289062,141.50123596191406,0.19594702,0 509.9044189453125,139.70057678222656,515.53271484375,145.4365692138672,0.12443831,0 
D:/data-shared/varroc/VND-images/zpracovane\img_r_207.png 418.5654296875,187.4103240966797,451.94403076171875,208.95350646972656,0.9996823,0 397.5409240722656,165.904296875,417.4407958984375,180.79066467285156,0.9994392,0 357.004150390625,191.2705535888672,395.3672790527344,223.69578552246094,0.9992149,0 419.4893493652344,145.0557861328125,435.005126953125,154.86610412597656,0.99847955,0 578.3430786132812,139.14208984375,588.3561401367188,145.14654541015625,0.98918056,0 502.62384033203125,138.91783142089844,511.9287414550781,145.9333953857422,0.925692,0 606.0737915039062,130.9369659423828,630.3345336914062,139.28292846679688,0.81126523,0 609.0446166992188,130.89376831054688,619.4012451171875,137.4957275390625,0.39041507,0 616.5289916992188,133.96214294433594,626.8329467773438,140.2794647216797,0.37209168,0 
D:/data-shared/varroc/VND-images/zpracovane\img_r_208.png 352.20361328125,191.8701629638672,393.8222961425781,223.43446350097656,0.9997707,0 418.4627990722656,144.77059936523438,433.6921081542969,154.48529052734375,0.9995587,0 397.0683898925781,165.4882049560547,416.55096435546875,180.3238525390625,0.9995131,0 418.7635498046875,186.17176818847656,451.3962707519531,208.13763427734375,0.9994955,0 578.0584106445312,138.9358367919922,587.2609252929688,144.30686950683594,0.9749609,0 501.2463684082031,138.04246520996094,512.847900390625,145.215087890625,0.971477,0 608.4778442382812,130.67271423339844,620.264404296875,137.59706115722656,0.57340187,0 607.3465576171875,128.6685333251953,627.732177734375,140.6829833984375,0.21690878,0 611.8687133789062,133.1890869140625,625.1976318359375,140.2921142578125,0.19896369,0 
D:/data-shared/varroc/VND-images/zpracovane\img_r_209.png 396.36328125,165.31187438964844,415.9975891113281,180.46742248535156,0.99959165,0 349.2989501953125,193.0371856689453,393.586669921875,224.6361541748047,0.99953675,0 417.04644775390625,144.2611083984375,432.614501953125,154.46421813964844,0.999331,0 416.78875732421875,185.1479949951172,450.6150207519531,208.0166473388672,0.9992977,0 499.8910827636719,137.65475463867188,513.3914184570312,144.721923828125,0.99557835,0 578.1083374023438,138.53085327148438,586.9710083007812,144.00674438476562,0.9798808,0 609.1109008789062,129.8911895751953,619.5368041992188,137.50225830078125,0.64491534,0 606.6732788085938,130.53977966308594,629.4550170898438,138.81399536132812,0.51512164,0 611.7692260742188,133.04815673828125,625.7301635742188,140.2222900390625,0.18776493,0 
D:/data-shared/varroc/VND-images/zpracovane\img_r_21.png 362.03857421875,198.06077575683594,394.5971984863281,219.78794860839844,0.9991506,0 440.3522033691406,215.17733764648438,445.33734130859375,219.22024536132812,0.22374111,0 
D:/data-shared/varroc/VND-images/zpracovane\img_r_210.png 347.0779113769531,193.4454803466797,389.9411315917969,225.5786895751953,0.99957937,0 395.0447692871094,165.22552490234375,415.2474060058594,180.4916229248047,0.9995289,0 417.6030578613281,184.95611572265625,450.15570068359375,206.6156768798828,0.9994182,0 415.8177490234375,144.2955780029297,431.0151062011719,154.4598846435547,0.999089,0 497.99212646484375,137.21994018554688,514.223388671875,144.6221160888672,0.9861637,0 577.9051513671875,138.40390014648438,586.4873657226562,143.76177978515625,0.9731494,0 610.683349609375,130.35400390625,624.5892333984375,138.6058349609375,0.97219425,0 
D:/data-shared/varroc/VND-images/zpracovane\img_r_211.png 342.7274475097656,193.75613403320312,389.095703125,226.70001220703125,0.99985886,0 414.8786926269531,144.60580444335938,429.476318359375,154.2122802734375,0.9998453,0 417.3691711425781,184.39715576171875,449.78656005859375,206.12876892089844,0.9995476,0 394.3833312988281,165.12538146972656,414.50213623046875,180.46926879882812,0.99900025,0 496.79071044921875,136.61318969726562,513.5699462890625,144.5950164794922,0.9853815,0 611.6904296875,131.07676696777344,623.6802978515625,138.57850646972656,0.969315,0 578.9179077148438,138.82933044433594,585.928466796875,143.42369079589844,0.853455,0 
D:/data-shared/varroc/VND-images/zpracovane\img_r_212.png 445.2913818359375,214.5757598876953,476.7522277832031,236.3173065185547,0.9986519,0 550.3065795898438,208.0364532470703,557.6095581054688,212.79376220703125,0.48941085,0 470.3152770996094,211.02630615234375,476.07489013671875,215.1705322265625,0.14058,0 
D:/data-shared/varroc/VND-images/zpracovane\img_r_213.png 338.9251708984375,194.7261199951172,386.77783203125,227.50042724609375,0.9998775,0 417.00726318359375,184.09805297851562,449.18194580078125,205.24966430664062,0.99969244,0 412.85394287109375,144.06338500976562,429.2843322753906,154.63279724121094,0.9994038,0 393.1257019042969,165.4827117919922,414.0419006347656,180.9425048828125,0.9993563,0 613.01953125,130.9667205810547,622.6843872070312,138.8072509765625,0.9912914,0 494.9003601074219,136.22048950195312,511.00592041015625,143.47947692871094,0.96439666,0 578.6246948242188,138.99551391601562,585.65966796875,143.57281494140625,0.87180793,0 
D:/data-shared/varroc/VND-images/zpracovane\img_r_214.png 336.4390563964844,194.74014282226562,384.265625,228.27561950683594,0.9998821,0 416.4920349121094,183.0673828125,448.91925048828125,204.89773559570312,0.99969083,0 393.01971435546875,165.6607208251953,413.3233642578125,181.16238403320312,0.99966824,0 411.1116027832031,144.52557373046875,427.8693542480469,154.7526092529297,0.99076945,0 612.8685302734375,131.30657958984375,622.497802734375,139.18521118164062,0.98890054,0 493.68743896484375,136.53053283691406,511.1568603515625,144.44114685058594,0.9886776,0 578.7767333984375,139.4176788330078,584.9653930664062,143.6675262451172,0.648297,0 
D:/data-shared/varroc/VND-images/zpracovane\img_r_215.png 330.8258361816406,194.70162963867188,382.84100341796875,228.74496459960938,0.99986243,0 392.3005676269531,166.39349365234375,412.5155944824219,182.00714111328125,0.9997275,0 416.4534606933594,182.3920440673828,448.8367919921875,204.6114959716797,0.9996165,0 410.84918212890625,144.6068572998047,426.72833251953125,154.87782287597656,0.99843717,0 612.5547485351562,131.24078369140625,622.4329223632812,139.02056884765625,0.99141365,0 492.4867248535156,137.0571746826172,509.5517578125,144.26605224609375,0.9752828,0 
D:/data-shared/varroc/VND-images/zpracovane\img_r_216.png 325.9966735839844,195.71339416503906,380.9643859863281,232.7749786376953,0.9998122,0 416.7974853515625,181.8578338623047,448.4869384765625,204.18679809570312,0.9994698,0 390.90338134765625,166.53826904296875,412.3010559082031,182.51353454589844,0.999236,0 612.4339599609375,131.61004638671875,622.5478515625,139.21194458007812,0.9949616,0 409.3125305175781,145.0782470703125,426.18035888671875,154.93052673339844,0.99458605,0 489.77093505859375,136.84397888183594,508.4021911621094,144.723876953125,0.9810615,0 
D:/data-shared/varroc/VND-images/zpracovane\img_r_217.png 319.8079528808594,195.4141845703125,380.20513916015625,234.83242797851562,0.9999063,0 389.961181640625,166.72119140625,411.74383544921875,182.74835205078125,0.9992768,0 416.5462646484375,181.5550079345703,448.6241455078125,204.13917541503906,0.9991728,0 489.6336975097656,137.20921325683594,504.72625732421875,144.66661071777344,0.998428,0 612.0474853515625,131.64749145507812,622.5648193359375,139.0894012451172,0.9969792,0 408.8018798828125,145.2041778564453,424.25732421875,155.353759765625,0.9927292,0 
D:/data-shared/varroc/VND-images/zpracovane\img_r_218.png 315.3346252441406,195.27940368652344,378.25958251953125,235.7719268798828,0.99983245,0 407.63641357421875,145.3871612548828,422.5859069824219,156.02117919921875,0.9995292,0 416.3915710449219,181.5284881591797,448.35443115234375,203.94775390625,0.9988183,0 388.7371520996094,166.99630737304688,410.1199035644531,183.27984619140625,0.9975679,0 611.5020141601562,131.39291381835938,622.5344848632812,139.32449340820312,0.9942697,0 486.3091125488281,136.92027282714844,504.6317443847656,144.905517578125,0.99161756,0 574.9749145507812,141.16989135742188,579.9545288085938,144.8085174560547,0.11404572,0 
D:/data-shared/varroc/VND-images/zpracovane\img_r_219.png 406.68756103515625,146.05374145507812,421.5485534667969,155.96395874023438,0.9996264,0 310.05804443359375,195.2728271484375,374.3374938964844,235.8757781982422,0.9995558,0 415.3844299316406,181.49725341796875,447.0506286621094,203.77281188964844,0.9988955,0 388.3226318359375,167.37887573242188,410.09832763671875,183.5376739501953,0.9986802,0 485.7565002441406,137.15757751464844,502.8194580078125,145.05836486816406,0.99825025,0 611.5128784179688,131.56517028808594,622.4696655273438,139.51597595214844,0.98633355,0 573.5947265625,139.70933532714844,580.5228881835938,144.76052856445312,0.568971,0 
D:/data-shared/varroc/VND-images/zpracovane\img_r_22.png 360.38604736328125,198.30474853515625,396.2231750488281,220.568115234375,0.9994632,0 
D:/data-shared/varroc/VND-images/zpracovane\img_r_220.png 304.11090087890625,197.0321807861328,371.8209228515625,239.71893310546875,0.99952453,0 387.7566833496094,167.84515380859375,409.3638000488281,183.5781707763672,0.9993916,0 414.7291259765625,180.90020751953125,446.70733642578125,202.83578491210938,0.9990489,0 405.134521484375,146.45370483398438,420.95684814453125,156.03958129882812,0.99836874,0 484.49334716796875,137.7233428955078,501.46826171875,145.00900268554688,0.9950375,0 610.76953125,131.0677490234375,624.7345581054688,139.46217346191406,0.98939496,0 571.201171875,140.50360107421875,576.95068359375,144.75942993164062,0.2668305,0 574.5106201171875,140.5543975830078,579.7235717773438,144.84751892089844,0.18472968,0 
D:/data-shared/varroc/VND-images/zpracovane\img_r_221.png 414.7666931152344,180.88551330566406,445.7506103515625,202.65750122070312,0.9993655,0 295.48828125,198.17005920410156,370.2801513671875,240.5419921875,0.9988952,0 386.31280517578125,168.1889190673828,408.6563720703125,184.54444885253906,0.9987193,0 403.7696228027344,146.6093292236328,419.32281494140625,156.53904724121094,0.9964953,0 482.0594177246094,137.81809997558594,499.5978698730469,145.5130157470703,0.9949548,0 608.1885375976562,133.15321350097656,622.2760009765625,141.2550506591797,0.97993267,0 571.699462890625,140.50286865234375,577.0345458984375,144.64813232421875,0.168685,0 574.71240234375,140.41542053222656,579.7694702148438,144.69351196289062,0.16686781,0 
D:/data-shared/varroc/VND-images/zpracovane\img_r_304.png 330.8990478515625,193.42750549316406,368.1993408203125,221.91893005371094,0.9994001,0 382.56341552734375,191.43260192871094,413.25262451171875,214.5203399658203,0.9978101,0 631.2527465820312,179.05943298339844,641.5888671875,185.37535095214844,0.99417025,0 505.2384033203125,176.6239471435547,525.69482421875,185.1569061279297,0.9716512,0 591.4703979492188,182.07786560058594,602.5664672851562,188.10946655273438,0.9577869,0 389.9037170410156,176.6485137939453,411.8603210449219,190.919189453125,0.9350362,0 610.0466918945312,179.02183532714844,616.8486938476562,183.1502685546875,0.47251406,0 610.6748657226562,177.82203674316406,616.3013305664062,181.28179931640625,0.36955243,0 
D:/data-shared/varroc/VND-images/zpracovane\img_r_305.png 329.4664001464844,195.24771118164062,367.5291748046875,223.0734100341797,0.9994848,0 631.6011962890625,179.9189910888672,641.7952880859375,186.2603302001953,0.9934613,0 504.90533447265625,176.8762664794922,525.4678955078125,185.55865478515625,0.99199426,0 591.4210205078125,182.2579803466797,602.36767578125,188.65945434570312,0.990061,0 383.1914367675781,190.14356994628906,412.2819519042969,215.37611389160156,0.9874878,0 610.2267456054688,179.57955932617188,618.1887817382812,183.7089080810547,0.5395498,0 390.48760986328125,177.99905395507812,408.33245849609375,192.60748291015625,0.36248648,0 
D:/data-shared/varroc/VND-images/zpracovane\img_r_306.png 327.54913330078125,196.57037353515625,368.90069580078125,224.31532287597656,0.9992007,0 631.3670654296875,180.16651916503906,642.448486328125,186.4666290283203,0.99575543,0 591.4095458984375,182.4769744873047,602.8076782226562,188.99717712402344,0.9949301,0 382.89166259765625,189.91151428222656,411.94769287109375,215.7236328125,0.9862386,0 503.7598571777344,177.5169677734375,524.8368530273438,185.90054321289062,0.9837084,0 613.7717895507812,179.95921325683594,621.0460205078125,183.78372192382812,0.4749238,0 611.0313110351562,180.1840057373047,617.8377685546875,183.6074676513672,0.27497447,0 389.7817077636719,178.80929565429688,407.7784423828125,193.834716796875,0.15563338,0 
D:/data-shared/varroc/VND-images/zpracovane\img_r_307.png 326.4281005859375,196.30783081054688,367.00054931640625,226.35330200195312,0.99931854,0 591.9600219726562,182.7307586669922,602.9566650390625,189.3462371826172,0.99401724,0 502.59747314453125,177.76295471191406,524.1763305664062,186.1522979736328,0.98693657,0 382.7854919433594,189.4773406982422,411.7383117675781,216.07666015625,0.9857029,0 631.3697509765625,180.27169799804688,641.7041625976562,187.45254516601562,0.89691204,0 613.2809448242188,180.23223876953125,622.2434692382812,184.11192321777344,0.5272551,0 388.61328125,179.1206512451172,407.47174072265625,194.50294494628906,0.12082482,0 
D:/data-shared/varroc/VND-images/zpracovane\img_r_308.png 324.8137512207031,196.02999877929688,364.4957580566406,227.13038635253906,0.99966407,0 592.36181640625,182.87306213378906,603.618896484375,189.80445861816406,0.9922663,0 382.579833984375,189.3793182373047,411.71051025390625,215.92031860351562,0.990167,0 502.0114440917969,178.0043182373047,523.7587280273438,186.3618621826172,0.9617453,0 631.1480102539062,180.74996948242188,643.144775390625,187.91966247558594,0.89001995,0 613.1649169921875,180.21218872070312,622.7657470703125,184.27247619628906,0.36925676,0 610.9903564453125,180.62405395507812,618.6565551757812,183.90811157226562,0.14187916,0 
D:/data-shared/varroc/VND-images/zpracovane\img_r_309.png 322.3360900878906,197.0149383544922,364.2015380859375,228.64797973632812,0.9994864,0 592.8632202148438,183.0372314453125,604.0560913085938,190.16607666015625,0.99403816,0 382.699951171875,188.63601684570312,411.7262268066406,216.1360626220703,0.98555446,0 500.9205322265625,178.51161193847656,520.78369140625,186.34613037109375,0.94173086,0 631.886474609375,181.34144592285156,642.8757934570312,188.25987243652344,0.9373551,0 616.5992431640625,180.4178009033203,626.4833984375,184.607666015625,0.32026026,0 617.1578979492188,183.06529235839844,626.5637817382812,186.73934936523438,0.1269413,0 
D:/data-shared/varroc/VND-images/zpracovane\img_r_31.png 367.6665344238281,203.0146942138672,400.807861328125,224.12733459472656,0.99919695,0 
D:/data-shared/varroc/VND-images/zpracovane\img_r_310.png 319.2987365722656,198.39646911621094,363.0506896972656,229.33724975585938,0.99976337,0 593.19775390625,183.214111328125,604.726806640625,190.47232055664062,0.9989275,0 631.7488403320312,181.7557830810547,643.9037475585938,188.5929412841797,0.9955405,0 382.7496337890625,175.9847412109375,410.5599060058594,217.5822296142578,0.9886991,0 500.4559020996094,178.919921875,520.2822265625,186.3392333984375,0.9843034,0 617.261474609375,180.14657592773438,626.2763671875,184.33119201660156,0.5765286,0 
D:/data-shared/varroc/VND-images/zpracovane\img_r_311.png 318.160400390625,198.9491729736328,362.37347412109375,231.13442993164062,0.9996335,0 382.2622375488281,176.73634338378906,410.9518127441406,216.5919647216797,0.9925401,0 500.1878662109375,179.06478881835938,518.5667114257812,186.43826293945312,0.98893327,0 593.5177612304688,184.1201171875,605.2709350585938,190.88986206054688,0.98696804,0 632.0634765625,182.0181121826172,643.35107421875,188.75343322753906,0.9484739,0 618.1695556640625,180.37518310546875,626.6275024414062,184.45216369628906,0.25219905,0 617.9224853515625,183.77532958984375,626.9217529296875,187.17042541503906,0.10228637,0 
D:/data-shared/varroc/VND-images/zpracovane\img_r_312.png 428.6645812988281,213.82225036621094,460.3302001953125,234.8019256591797,0.9936666,0 
D:/data-shared/varroc/VND-images/zpracovane\img_r_313.png 313.95880126953125,199.0306396484375,360.5736083984375,232.31689453125,0.99989766,0 381.7798156738281,188.96482849121094,411.7951965332031,215.1788787841797,0.9867374,0 594.1873779296875,183.8753204345703,606.697509765625,190.7957305908203,0.9855697,0 498.3994445800781,178.73069763183594,519.80419921875,186.84934997558594,0.96407425,0 631.5748901367188,182.1152801513672,643.7960205078125,188.59214782714844,0.82127774,0 617.4586791992188,181.04806518554688,644.5216674804688,188.7691192626953,0.20460014,0 621.40869140625,180.25985717773438,630.67822265625,185.43780517578125,0.15054911,0 621.8082885742188,183.10293579101562,631.0166625976562,187.77415466308594,0.10875024,0 
D:/data-shared/varroc/VND-images/zpracovane\img_r_314.png 312.99072265625,199.30584716796875,359.626708984375,232.2774658203125,0.99984145,0 381.05474853515625,178.70606994628906,409.5876159667969,215.20013427734375,0.9887691,0 594.5299682617188,184.31695556640625,606.9192504882812,190.83900451660156,0.98435235,0 497.2971496582031,178.94212341308594,516.9632568359375,186.99913024902344,0.9566395,0 631.5862426757812,182.63230895996094,643.575927734375,188.95191955566406,0.64621526,0 621.6061401367188,181.08653259277344,646.1739501953125,189.04486083984375,0.22554848,0 624.7280883789062,182.48846435546875,636.0657348632812,188.50144958496094,0.16527894,0 622.0994873046875,180.3854217529297,630.74951171875,185.51019287109375,0.10674013,0 
D:/data-shared/varroc/VND-images/zpracovane\img_r_315.png 307.47119140625,200.501953125,359.3635559082031,234.70265197753906,0.99969363,0 380.2247314453125,179.24935913085938,409.6925354003906,214.8986358642578,0.99283296,0 496.57244873046875,178.8204803466797,517.3502197265625,187.48519897460938,0.99205923,0 595.0174560546875,184.5550537109375,607.0782470703125,190.78952026367188,0.9861893,0 621.0576782226562,180.73519897460938,646.0443725585938,189.26226806640625,0.5368029,0 631.5565795898438,182.799560546875,643.3240966796875,189.19168090820312,0.3665524,0 624.1739501953125,181.9453582763672,636.6864624023438,188.66551208496094,0.22248736,0 
D:/data-shared/varroc/VND-images/zpracovane\img_r_316.png 303.90771484375,200.23939514160156,358.12799072265625,236.0924530029297,0.9997019,0 379.29754638671875,179.85482788085938,410.10003662109375,214.54913330078125,0.993396,0 495.21478271484375,178.74148559570312,516.95654296875,187.42079162597656,0.9900442,0 594.8779296875,184.6840057373047,607.4121704101562,190.7829132080078,0.9898882,0 631.0896606445312,182.5736083984375,644.137451171875,189.49087524414062,0.6801818,0 624.67236328125,182.09674072265625,636.1660766601562,188.80345153808594,0.3166677,0 
D:/data-shared/varroc/VND-images/zpracovane\img_r_317.png 301.25848388671875,200.6603546142578,355.5206298828125,237.61953735351562,0.9998342,0 377.75592041015625,183.16708374023438,411.761474609375,212.8448028564453,0.99688387,0 494.1932067871094,179.0178680419922,516.1265869140625,187.5126495361328,0.99125415,0 595.1654663085938,184.60092163085938,608.5540771484375,190.8642120361328,0.99038595,0 626.7669677734375,181.1846466064453,642.1858520507812,189.13211059570312,0.9519091,0 
D:/data-shared/varroc/VND-images/zpracovane\img_r_318.png 294.6160888671875,201.01661682128906,355.95849609375,238.05026245117188,0.99974895,0 377.07305908203125,183.57614135742188,411.48046875,212.5939178466797,0.99744827,0 595.8494873046875,184.81234741210938,608.8628540039062,190.78427124023438,0.9865311,0 493.9599609375,179.10520935058594,515.6355590820312,187.72024536132812,0.9854045,0 629.9177856445312,182.20681762695312,643.9466552734375,189.5856475830078,0.9816288,0 
D:/data-shared/varroc/VND-images/zpracovane\img_r_319.png 291.2506408691406,199.80767822265625,352.6335144042969,239.20391845703125,0.9993233,0 376.55645751953125,183.95169067382812,411.289306640625,212.72557067871094,0.99767184,0 631.2045288085938,182.17681884765625,644.7623901367188,189.96340942382812,0.9925194,0 492.689697265625,179.0736846923828,513.46533203125,187.69390869140625,0.9921119,0 595.0353393554688,185.3827362060547,610.2849731445312,191.85516357421875,0.96760523,0 595.3190307617188,192.91233825683594,609.5211791992188,195.3306884765625,0.10110139,0 
D:/data-shared/varroc/VND-images/zpracovane\img_r_32.png 368.0271911621094,203.38722229003906,400.77032470703125,224.5771026611328,0.9995068,0 
D:/data-shared/varroc/VND-images/zpracovane\img_r_320.png 284.5009460449219,202.0157928466797,351.68377685546875,243.26080322265625,0.99971485,0 376.70953369140625,184.38430786132812,411.706787109375,212.8208770751953,0.9986823,0 631.6226196289062,182.43588256835938,644.6712646484375,190.14369201660156,0.9976774,0 491.6624450683594,179.2664337158203,513.3768310546875,187.7614288330078,0.99645805,0 596.0016479492188,185.4811248779297,610.2113647460938,191.84915161132812,0.9671419,0 
D:/data-shared/varroc/VND-images/zpracovane\img_r_321.png 632.4711303710938,182.82069396972656,644.4838256835938,190.41627502441406,0.99969804,0 280.06201171875,202.0253448486328,348.2810363769531,245.03684997558594,0.9992882,0 376.12908935546875,185.02259826660156,411.77850341796875,212.90513610839844,0.99911314,0 490.4808044433594,179.34410095214844,512.310302734375,187.7807159423828,0.9939386,0 596.3170776367188,185.57101440429688,610.7019653320312,191.8544158935547,0.93569106,0 
D:/data-shared/varroc/VND-images/zpracovane\img_r_322.png 274.493408203125,201.65333557128906,345.643798828125,248.07562255859375,0.99972665,0 633.146484375,182.9797821044922,645.3108520507812,190.43246459960938,0.9995791,0 375.19091796875,185.57118225097656,411.99322509765625,212.8328399658203,0.99749005,0 489.7486572265625,179.4396514892578,512.331298828125,187.93145751953125,0.9963141,0 598.0327758789062,185.43612670898438,611.14990234375,191.8856964111328,0.983022,0 
D:/data-shared/varroc/VND-images/zpracovane\img_r_323.png 425.82293701171875,213.79898071289062,457.6264343261719,234.698974609375,0.99819106,0 
D:/data-shared/varroc/VND-images/zpracovane\img_r_324.png 268.59698486328125,200.43212890625,341.48712158203125,252.076416015625,0.9998549,0 373.8242492675781,184.98150634765625,411.8557434082031,212.7974090576172,0.9988931,0 634.1204833984375,182.69818115234375,647.4608154296875,190.59454345703125,0.99860644,0 597.9713134765625,185.45050048828125,611.4868774414062,192.18545532226562,0.9959901,0 488.63348388671875,179.34927368164062,510.0885925292969,188.09677124023438,0.9901245,0 
D:/data-shared/varroc/VND-images/zpracovane\img_r_325.png 259.51806640625,202.5230712890625,339.0402526855469,254.5111541748047,0.9997404,0 634.4223022460938,183.2714385986328,648.951416015625,190.94613647460938,0.999666,0 370.6404724121094,184.67990112304688,411.78961181640625,211.7920379638672,0.99772906,0 598.3428955078125,185.7666473388672,611.77099609375,192.50894165039062,0.9972817,0 487.843994140625,179.3081817626953,509.5108947753906,188.20721435546875,0.9951444,0 
D:/data-shared/varroc/VND-images/zpracovane\img_r_856.png 361.15631103515625,189.203369140625,393.94903564453125,210.47946166992188,0.9992142,0 
D:/data-shared/varroc/VND-images/zpracovane\img_r_857.png 78.2729263305664,176.71238708496094,127.6086196899414,201.3529815673828,0.99841905,0 
D:/data-shared/varroc/VND-images/zpracovane\img_r_858.png 81.48552703857422,177.3357391357422,130.21221923828125,201.46617126464844,0.9988176,0 
D:/data-shared/varroc/VND-images/zpracovane\img_r_859.png 85.37113952636719,177.67877197265625,132.794921875,201.34783935546875,0.99842864,0 
D:/data-shared/varroc/VND-images/zpracovane\img_r_86.png 450.505126953125,229.09019470214844,461.1669921875,236.40890502929688,0.9976372,0 522.8276977539062,226.96963500976562,534.2928466796875,232.25172424316406,0.9908409,0 372.15203857421875,234.81399536132812,397.7384948730469,243.1061553955078,0.98149943,0 402.57421875,226.12721252441406,432.5295104980469,244.4070281982422,0.5724349,0 
D:/data-shared/varroc/VND-images/zpracovane\img_r_860.png 86.6234359741211,177.99249267578125,134.3458251953125,201.80128479003906,0.9987697,0 
D:/data-shared/varroc/VND-images/zpracovane\img_r_861.png 89.59546661376953,178.3183135986328,136.86160278320312,202.01295471191406,0.9983626,0 
D:/data-shared/varroc/VND-images/zpracovane\img_r_862.png 90.36968231201172,178.60525512695312,138.2998504638672,202.64947509765625,0.9984926,0 
D:/data-shared/varroc/VND-images/zpracovane\img_r_863.png 93.66204071044922,178.8885040283203,141.56622314453125,203.81951904296875,0.99798554,0 
D:/data-shared/varroc/VND-images/zpracovane\img_r_864.png 94.3707275390625,179.84878540039062,143.74533081054688,204.90472412109375,0.9925065,0 
D:/data-shared/varroc/VND-images/zpracovane\img_r_865.png 97.96830749511719,181.1148223876953,145.04591369628906,204.8363494873047,0.99721014,0 
D:/data-shared/varroc/VND-images/zpracovane\img_r_866.png 99.56977844238281,181.82769775390625,146.38616943359375,205.3607177734375,0.9983448,0 
D:/data-shared/varroc/VND-images/zpracovane\img_r_867.png 360.7561950683594,189.09976196289062,393.15374755859375,210.3585968017578,0.99941415,0 
D:/data-shared/varroc/VND-images/zpracovane\img_r_868.png 103.21420288085938,182.30303955078125,148.8121795654297,205.96902465820312,0.99863195,0 
D:/data-shared/varroc/VND-images/zpracovane\img_r_869.png 105.87217712402344,183.11083984375,151.1269073486328,207.22157287597656,0.9983298,0 
D:/data-shared/varroc/VND-images/zpracovane\img_r_87.png 450.44488525390625,229.02638244628906,461.11871337890625,236.4535369873047,0.997415,0 522.4634399414062,226.9053497314453,534.3005981445312,232.3081817626953,0.983128,0 371.3392333984375,235.10877990722656,398.4849853515625,243.39004516601562,0.94653046,0 
D:/data-shared/varroc/VND-images/zpracovane\img_r_870.png 108.11638641357422,183.62057495117188,153.53575134277344,208.83477783203125,0.99834174,0 
D:/data-shared/varroc/VND-images/zpracovane\img_r_871.png 111.04145050048828,184.8779754638672,155.36341857910156,208.98031616210938,0.9989352,0 
D:/data-shared/varroc/VND-images/zpracovane\img_r_872.png 112.06610107421875,186.08534240722656,156.26296997070312,209.10829162597656,0.9989835,0 
D:/data-shared/varroc/VND-images/zpracovane\img_r_873.png 114.88465881347656,186.743408203125,158.664794921875,210.69728088378906,0.99926627,0 
D:/data-shared/varroc/VND-images/zpracovane\img_r_874.png 116.96675872802734,187.0591278076172,160.52426147460938,212.21206665039062,0.99843514,0 
D:/data-shared/varroc/VND-images/zpracovane\img_r_875.png 119.47038269042969,188.8968963623047,162.84771728515625,213.34873962402344,0.99843574,0 
D:/data-shared/varroc/VND-images/zpracovane\img_r_876.png 120.52054595947266,190.4921875,164.20860290527344,213.58181762695312,0.9987722,0 
D:/data-shared/varroc/VND-images/zpracovane\img_r_877.png 123.07980346679688,191.17054748535156,166.68911743164062,215.54718017578125,0.99867004,0 
D:/data-shared/varroc/VND-images/zpracovane\img_r_878.png 360.6527099609375,189.18539428710938,392.6451416015625,210.16452026367188,0.9994064,0 430.9682312011719,199.46185302734375,435.5007629394531,203.1116943359375,0.3221652,0 
D:/data-shared/varroc/VND-images/zpracovane\img_r_879.png 128.02780151367188,191.97845458984375,168.94854736328125,217.1720733642578,0.99885553,0 
D:/data-shared/varroc/VND-images/zpracovane\img_r_88.png 450.75897216796875,229.360107421875,460.9051208496094,236.94546508789062,0.9962766,0 521.9884643554688,226.8553924560547,533.1014404296875,232.53477478027344,0.98411435,0 369.71148681640625,235.0880889892578,395.74127197265625,243.60667419433594,0.9234181,0 403.2509460449219,227.25328063964844,432.9961242675781,246.81210327148438,0.6296304,0 
D:/data-shared/varroc/VND-images/zpracovane\img_r_880.png 128.4975128173828,193.70440673828125,171.58570861816406,217.11215209960938,0.99899477,0 
D:/data-shared/varroc/VND-images/zpracovane\img_r_881.png 131.8218231201172,194.63755798339844,173.01312255859375,218.20262145996094,0.99914473,0 
D:/data-shared/varroc/VND-images/zpracovane\img_r_882.png 133.31234741210938,195.1196746826172,175.00399780273438,219.8553924560547,0.9985689,0 
D:/data-shared/varroc/VND-images/zpracovane\img_r_883.png 136.4632110595703,196.75607299804688,177.3176727294922,220.71463012695312,0.99825954,0 
D:/data-shared/varroc/VND-images/zpracovane\img_r_901.png 356.757080078125,189.65447998046875,388.57342529296875,211.193115234375,0.9989045,0 429.75140380859375,201.0502471923828,439.3279113769531,206.3656768798828,0.9534269,0 
D:/data-shared/varroc/VND-images/zpracovane\img_r_91.png 450.2471923828125,230.28872680664062,461.4250183105469,237.6107635498047,0.9970092,0 521.6705932617188,226.9754180908203,532.7200317382812,232.79684448242188,0.99395066,0 404.6413879394531,230.06930541992188,433.48907470703125,247.3784942626953,0.8911821,0 368.7201843261719,234.651123046875,393.70159912109375,248.03392028808594,0.89106137,0 
D:/data-shared/varroc/VND-images/zpracovane\img_r_92.png 450.2063293457031,230.85195922851562,461.4332580566406,238.03536987304688,0.9983544,0 521.0936279296875,227.32508850097656,533.2307739257812,233.22218322753906,0.9973109,0 367.8243713378906,234.64170837402344,393.5887451171875,249.20791625976562,0.9669836,0 405.800048828125,231.29881286621094,436.1641845703125,247.75823974609375,0.89924866,0 
D:/data-shared/varroc/VND-images/zpracovane\img_r_93.png 451.7066955566406,231.30613708496094,460.99871826171875,238.72616577148438,0.998728,0 520.78173828125,227.39651489257812,533.1123046875,233.4153594970703,0.99813545,0 367.1083068847656,234.6998291015625,393.6117248535156,249.8881072998047,0.96448284,0 406.3351745605469,230.54661560058594,436.4376220703125,248.2541961669922,0.84775466,0 
D:/data-shared/varroc/VND-images/zpracovane\img_r_94.png 520.9578857421875,227.41539001464844,532.8741455078125,233.509033203125,0.9965261,0 451.90167236328125,231.35377502441406,460.6856689453125,239.04173278808594,0.996094,0 363.5226745605469,234.754150390625,393.8775939941406,250.17889404296875,0.9898805,0 406.75677490234375,233.1050567626953,437.3359680175781,249.6646270751953,0.98319095,0 
D:/data-shared/varroc/VND-images/zpracovane\img_r_95.png 451.5594482421875,231.96142578125,461.3066711425781,239.08396911621094,0.99918926,0 362.8465270996094,234.88265991210938,393.9847717285156,251.87205505371094,0.9968851,0 521.1488647460938,227.4589385986328,532.4935913085938,233.63800048828125,0.99619997,0 407.6238098144531,234.01382446289062,438.647216796875,250.34315490722656,0.8862078,0 
D:/data-shared/varroc/VND-images/zpracovane\img_r_96.png 361.51239013671875,235.00306701660156,392.689453125,251.96377563476562,0.99738735,0 451.6890563964844,232.1477813720703,461.0556640625,239.39894104003906,0.9972936,0 521.1749267578125,227.85916137695312,531.81005859375,233.72702026367188,0.99098855,0 408.3180847167969,235.08473205566406,437.9410400390625,251.24185180664062,0.9629835,0 
D:/data-shared/varroc/VND-images/zpracovane\img_r_855.png 77.62043762207031,176.74400329589844,125.98493194580078,201.09756469726562,0.9983284,0 
